…
    ## 
    ##  Downloading file 1 of 1: `shelters.csv`

    ## --- Download complete ---

``` r
raw_df <- raw_df$shelters
```

``` r
raw_df
```

    ## # A tibble: 115,916 x 13
    ##       id occupancy_date      organization_na~ shelter_name shelter_address
    ##    <dbl> <dttm>              <chr>            <chr>        <chr>          
    ##  1     1 2017-01-01 00:00:00 COSTI Immigrant~ COSTI Recep~ 100 Lippincott~
    ##  2     2 2017-01-01 00:00:00 Christie Ossing~ Christie Os~ 973 Lansdowne ~
    ##  3     3 2017-01-01 00:00:00 Christie Ossing~ Christie Os~ 973 Lansdowne ~
    ##  4     4 2017-01-01 00:00:00 Christie Refuge~ Christie Re~ 43 Christie St~
    ##  5     5 2017-01-01 00:00:00 City of Toronto  Birchmount ~ 1673 Kingston ~
    ##  6     6 2017-01-01 00:00:00 City of Toronto  Birkdale Re~ 1229 Ellesmere~
    ##  7     7 2017-01-01 00:00:00 City of Toronto  Birkdale Re~ 1229 Ellesmere~
    ##  8     8 2017-01-01 00:00:00 City of Toronto  Downsview D~ 1651 Sheppard ~
    ##  9     9 2017-01-01 00:00:00 City of Toronto  Family Resi~ 4222 Kingston ~
    ## 10    10 2017-01-01 00:00:00 City of Toronto  Family Resi~ 4222 Kingston ~
    ## # ... with 115,906 more rows, and 8 more variables: shelter_city <chr>,
    ## #   shelter_province <chr>, shelter_postal_code <chr>, facility_name <chr>,
    ## #   program_name <chr>, sector <chr>, occupancy <dbl>, capacity <dbl>
…
