…
``` r
extrafont::loadfonts(device="win")

library(tidyverse)
library(ggthemes)
library(ggtext)

raw_df <- lemurs <- readr::read_csv('https://raw.githubusercontent.com/rfordatascience/tidytuesday/master/data/2021/2021-08-24/lemur_data.csv')
```

``` r
raw_df
```

    ## # A tibble: 82,609 x 54
    ##    taxon dlc_id hybrid sex   name      current_resident stud_book dob       
    ##    <chr> <chr>  <chr>  <chr> <chr>     <chr>            <chr>     <date>    
    ##  1 OGG   0005   N      M     KANGA     N                <NA>      1961-08-25
    ##  2 OGG   0005   N      M     KANGA     N                <NA>      1961-08-25
    ##  3 OGG   0006   N      F     ROO       N                <NA>      1961-03-17
    ##  4 OGG   0006   N      F     ROO       N                <NA>      1961-03-17
    ##  5 OGG   0009   N      M     POOH BEAR N                <NA>      1963-09-30
    ##  6 OGG   0009   N      M     POOH BEAR N                <NA>      1963-09-30
    ##  7 OGG   0009   N      M     POOH BEAR N                <NA>      1963-09-30
    ##  8 OGG   0010   N      M     EEYORE    N                <NA>      1964-05-20
    ##  9 OGG   0010   N      M     EEYORE    N                <NA>      1964-05-20
    ## 10 OGG   0014   N      F     ROOLETTE  N                <NA>      1964-10-27
    ## # ... with 82,599 more rows, and 46 more variables: birth_month <dbl>,
    ## #   estimated_dob <chr>, birth_type <chr>, birth_institution <chr>,
    ## #   litter_size <dbl>, expected_gestation <dbl>, estimated_concep <date>,
    ## #   concep_month <dbl>, dam_id <chr>, dam_name <chr>, dam_taxon <chr>,
    ## #   dam_dob <date>, dam_age_at_concep_y <dbl>, sire_id <chr>, sire_name <chr>,
    ## #   sire_taxon <chr>, sire_dob <date>, sire_age_at_concep_y <dbl>, dod <date>,
    ## #   age_at_death_y <dbl>, age_of_living_y <dbl>, age_last_verified_y <dbl>, ...
…
