…
library(sf) # Mapping
library(tigris) # Mapping
options(tigris_use_cache = TRUE)
options(tigris_class = "sf")

library(tidyverse)
library(here)
library(colorspace)
library(ggtext)

raw_df <- readr::read_csv("https://raw.githubusercontent.com/rfordatascience/tidytuesday/master/data/2021/2021-05-11/broadband.csv")
raw_df
```

    ## # A tibble: 3,143 x 5
    ##    ST    `COUNTY ID` `COUNTY NAME`   `BROADBAND AVAILABILITY P~ `BROADBAND USAG~
    ##    <chr>       <dbl> <chr>           <chr>                      <chr>           
    ##  1 AL           1001 Autauga County  0.81                       0.28            
    ##  2 AL           1003 Baldwin County  0.88                       0.30            
    ##  3 AL           1005 Barbour County  0.59                       0.18            
    ##  4 AL           1007 Bibb County     0.29                       0.07            
    ##  5 AL           1009 Blount County   0.69                       0.09            
    ##  6 AL           1011 Bullock County  0.06                       0.05            
    ##  7 AL           1013 Butler County   0.78                       0.11            
    ##  8 AL           1015 Calhoun County  0.93                       0.32            
    ##  9 AL           1017 Chambers County 0.82                       0.34            
    ## 10 AL           1019 Cherokee County 0.99                       0.10            
    ## # ... with 3,133 more rows
…
