…
raw_df <- tidytuesdayR::tt_load(2020, week = 51)
```

    ## 
    ##  Downloading file 1 of 1: `ninja_warrior.csv`

``` r
raw_df <- raw_df$ninja_warrior
```

``` r
raw_df
```

    ## # A tibble: 889 x 5
    ##    season location round_stage obstacle_name   obstacle_order
    ##     <dbl> <chr>    <chr>       <chr>                    <dbl>
    ##  1      1 Venice   Qualifying  Quintuple Steps              1
    ##  2      1 Venice   Qualifying  Rope Swing                   2
    ##  3      1 Venice   Qualifying  Rolling Barrel               3
    ##  4      1 Venice   Qualifying  Jumping Spider               4
    ##  5      1 Venice   Qualifying  Pipe Slider                  5
    ##  6      1 Venice   Qualifying  Warped Wall                  6
    ##  7      1 Venice   Semi-Finals Quintuple Steps              1
    ##  8      1 Venice   Semi-Finals Rope Swing                   2
    ##  9      1 Venice   Semi-Finals Rolling Barrel               3
    ## 10      1 Venice   Semi-Finals Jumping Spider               4
    ## # ... with 879 more rows
…
