…
``` r
raw_fires %>%
  filter(confidence > 80) %>%
  mutate(date_time = ymd_hm(paste(acq_date, acq_time))) %>%
  select(date_time, everything()) 
```

    ## # A tibble: 78,984 x 15
    ##    date_time           latitude longitude brightness  scan track acq_date  
    ##    <dttm>                 <dbl>     <dbl>      <dbl> <dbl> <dbl> <date>    
    ##  1 2019-11-01 01:20:00    -15.5      126.       361.   3.1   1.7 2019-11-01
    ##  2 2019-11-01 01:20:00    -15.5      126.       340.   3.1   1.7 2019-11-01
    ##  3 2019-11-01 01:20:00    -15.5      126.       351.   3.1   1.7 2019-11-01
    ##  4 2019-11-01 01:20:00    -15.5      126.       347.   3.1   1.7 2019-11-01
    ##  5 2019-11-01 01:20:00    -12.1      137.       337.   1     1   2019-11-01
    ##  6 2019-11-01 01:20:00    -12.1      137.       337.   1     1   2019-11-01
    ##  7 2019-11-01 01:20:00    -23.6      132.       354.   1     1   2019-11-01
    ##  8 2019-11-01 01:20:00    -23.6      132.       362.   1     1   2019-11-01
    ##  9 2019-11-01 01:20:00    -23.6      132.       348.   1     1   2019-11-01
    ## 10 2019-11-01 01:20:00    -12.5      132.       336.   1.2   1.1 2019-11-01
    ## # ... with 78,974 more rows, and 8 more variables: acq_time <chr>,
    ## #   satellite <chr>, instrument <chr>, confidence <dbl>, version <chr>,
    ## #   bright_t31 <dbl>, frp <dbl>, daynight <chr>

``` r
raw_fires %>%
  filter(acq_date == "2019-12-30")
```

    ## # A tibble: 6,926 x 14
    ##    latitude longitude brightness  scan track acq_date   acq_time satellite
    ##       <dbl>     <dbl>      <dbl> <dbl> <dbl> <date>     <chr>    <chr>    
    ##  1    -18.5      144.       330.   1.8   1.3 2019-12-30 0100     Terra    
    ##  2    -19.4      139.       348.   1     1   2019-12-30 0100     Terra    
    ##  3    -18.1      143.       328.   1.5   1.2 2019-12-30 0100     Terra    
    ##  4    -18.1      143.       341.   1.5   1.2 2019-12-30 0100     Terra    
    ##  5    -20.2      144.       332.   1.9   1.4 2019-12-30 0100     Terra    
    ##  6    -19.4      139.       336.   1     1   2019-12-30 0100     Terra    
    ##  7    -19.4      139.       331.   1     1   2019-12-30 0100     Terra    
    ##  8    -17.0      138.       340.   1     1   2019-12-30 0100     Terra    
    ##  9    -15.1      142.       331    1.1   1.1 2019-12-30 0100     Terra    
    ## 10    -16.7      136.       350.   1.3   1.1 2019-12-30 0100     Terra    
    ## # ... with 6,916 more rows, and 6 more variables: instrument <chr>,
    ## #   confidence <dbl>, version <chr>, bright_t31 <dbl>, frp <dbl>,
    ## #   daynight <chr>
