Week 2021/36 Bird Baths
================

``` r
library(tidyverse)
library(tidytext)
library(colorspace)
library(ggtext)

raw_df <-  readr::read_csv('https://raw.githubusercontent.com/rfordatascience/tidytuesday/master/data/2021/2021-08-31/bird_baths.csv')
raw_df
```

    ## # A tibble: 161,057 x 5
    ##    survey_year urban_rural bioregions               bird_type         bird_count
    ##          <dbl> <chr>       <chr>                    <chr>                  <dbl>
    ##  1        2014 Urban       South Eastern Queensland Bassian Thrush             0
    ##  2        2014 Urban       South Eastern Queensland Chestnut-breaste~          0
    ##  3        2014 Urban       South Eastern Queensland Wild Duck                  0
    ##  4        2014 Urban       South Eastern Queensland Willie Wagtail             0
    ##  5        2014 Urban       South Eastern Queensland Regent Bowerbird           0
    ##  6        2014 Urban       South Eastern Queensland Rufous Fantail             0
    ##  7        2014 Urban       South Eastern Queensland Spiny-cheeked Ho~          0
    ##  8        2014 Urban       South Eastern Queensland Flame Robin                0
    ##  9        2014 Urban       South Eastern Queensland European Goldfin~          0
    ## 10        2014 Urban       South Eastern Queensland Noisy Friarbird            0
    ## # ... with 161,047 more rows
…
